('C:\\Users\\magshimim\\Documents\\magshimim\\chat ziv and tamir screen - Copy\\build\\client_Screen\\out00-PYZ.pyz',
 [('encodings.aliases',
   'c:\\python27\\lib\\encodings\\aliases.py',
   'PYMODULE'),
  ('encodings', 'c:\\python27\\lib\\encodings\\__init__.py', 'PYMODULE'),
  ('encodings.idna', 'c:\\python27\\lib\\encodings\\idna.py', 'PYMODULE'),
  ('re', 'c:\\python27\\lib\\re.py', 'PYMODULE'),
  ('sre_constants', 'c:\\python27\\lib\\sre_constants.py', 'PYMODULE'),
  ('sre', 'c:\\python27\\lib\\sre.py', 'PYMODULE'),
  ('warnings', 'c:\\python27\\lib\\warnings.py', 'PYMODULE'),
  ('types', 'c:\\python27\\lib\\types.py', 'PYMODULE'),
  ('linecache', 'c:\\python27\\lib\\linecache.py', 'PYMODULE'),
  ('string', 'c:\\python27\\lib\\string.py', 'PYMODULE'),
  ('copy', 'c:\\python27\\lib\\copy.py', 'PYMODULE'),
  ('repr', 'c:\\python27\\lib\\repr.py', 'PYMODULE'),
  ('weakref', 'c:\\python27\\lib\\weakref.py', 'PYMODULE'),
  ('_weakrefset', 'c:\\python27\\lib\\_weakrefset.py', 'PYMODULE'),
  ('UserDict', 'c:\\python27\\lib\\UserDict.py', 'PYMODULE'),
  ('_abcoll', 'c:\\python27\\lib\\_abcoll.py', 'PYMODULE'),
  ('abc', 'c:\\python27\\lib\\abc.py', 'PYMODULE'),
  ('copy_reg', 'c:\\python27\\lib\\copy_reg.py', 'PYMODULE'),
  ('sre_parse', 'c:\\python27\\lib\\sre_parse.py', 'PYMODULE'),
  ('sre_compile', 'c:\\python27\\lib\\sre_compile.py', 'PYMODULE'),
  ('stringprep', 'c:\\python27\\lib\\stringprep.py', 'PYMODULE'),
  ('encodings.mbcs', 'c:\\python27\\lib\\encodings\\mbcs.py', 'PYMODULE'),
  ('encodings.raw_unicode_escape',
   'c:\\python27\\lib\\encodings\\raw_unicode_escape.py',
   'PYMODULE'),
  ('encodings.gb18030',
   'c:\\python27\\lib\\encodings\\gb18030.py',
   'PYMODULE'),
  ('encodings.shift_jisx0213',
   'c:\\python27\\lib\\encodings\\shift_jisx0213.py',
   'PYMODULE'),
  ('encodings.ascii', 'c:\\python27\\lib\\encodings\\ascii.py', 'PYMODULE'),
  ('encodings.cp861', 'c:\\python27\\lib\\encodings\\cp861.py', 'PYMODULE'),
  ('encodings.cp860', 'c:\\python27\\lib\\encodings\\cp860.py', 'PYMODULE'),
  ('encodings.cp863', 'c:\\python27\\lib\\encodings\\cp863.py', 'PYMODULE'),
  ('encodings.cp862', 'c:\\python27\\lib\\encodings\\cp862.py', 'PYMODULE'),
  ('encodings.cp865', 'c:\\python27\\lib\\encodings\\cp865.py', 'PYMODULE'),
  ('encodings.big5hkscs',
   'c:\\python27\\lib\\encodings\\big5hkscs.py',
   'PYMODULE'),
  ('encodings.cp866', 'c:\\python27\\lib\\encodings\\cp866.py', 'PYMODULE'),
  ('encodings.cp869', 'c:\\python27\\lib\\encodings\\cp869.py', 'PYMODULE'),
  ('encodings.mac_latin2',
   'c:\\python27\\lib\\encodings\\mac_latin2.py',
   'PYMODULE'),
  ('encodings.hex_codec',
   'c:\\python27\\lib\\encodings\\hex_codec.py',
   'PYMODULE'),
  ('encodings.cp950', 'c:\\python27\\lib\\encodings\\cp950.py', 'PYMODULE'),
  ('encodings.quopri_codec',
   'c:\\python27\\lib\\encodings\\quopri_codec.py',
   'PYMODULE'),
  ('StringIO', 'c:\\python27\\lib\\StringIO.py', 'PYMODULE'),
  ('quopri', 'c:\\python27\\lib\\quopri.py', 'PYMODULE'),
  ('getopt', 'c:\\python27\\lib\\getopt.py', 'PYMODULE'),
  ('encodings.utf_32_be',
   'c:\\python27\\lib\\encodings\\utf_32_be.py',
   'PYMODULE'),
  ('encodings.string_escape',
   'c:\\python27\\lib\\encodings\\string_escape.py',
   'PYMODULE'),
  ('encodings.cp1250', 'c:\\python27\\lib\\encodings\\cp1250.py', 'PYMODULE'),
  ('encodings.cp1251', 'c:\\python27\\lib\\encodings\\cp1251.py', 'PYMODULE'),
  ('encodings.cp1252', 'c:\\python27\\lib\\encodings\\cp1252.py', 'PYMODULE'),
  ('encodings.cp1253', 'c:\\python27\\lib\\encodings\\cp1253.py', 'PYMODULE'),
  ('encodings.cp1254', 'c:\\python27\\lib\\encodings\\cp1254.py', 'PYMODULE'),
  ('encodings.cp1255', 'c:\\python27\\lib\\encodings\\cp1255.py', 'PYMODULE'),
  ('encodings.cp1256', 'c:\\python27\\lib\\encodings\\cp1256.py', 'PYMODULE'),
  ('encodings.cp1257', 'c:\\python27\\lib\\encodings\\cp1257.py', 'PYMODULE'),
  ('encodings.cp1258', 'c:\\python27\\lib\\encodings\\cp1258.py', 'PYMODULE'),
  ('encodings.euc_jp', 'c:\\python27\\lib\\encodings\\euc_jp.py', 'PYMODULE'),
  ('encodings.hz', 'c:\\python27\\lib\\encodings\\hz.py', 'PYMODULE'),
  ('encodings.mac_cyrillic',
   'c:\\python27\\lib\\encodings\\mac_cyrillic.py',
   'PYMODULE'),
  ('encodings.iso2022_kr',
   'c:\\python27\\lib\\encodings\\iso2022_kr.py',
   'PYMODULE'),
  ('encodings.unicode_internal',
   'c:\\python27\\lib\\encodings\\unicode_internal.py',
   'PYMODULE'),
  ('encodings.cp500', 'c:\\python27\\lib\\encodings\\cp500.py', 'PYMODULE'),
  ('encodings.iso8859_10',
   'c:\\python27\\lib\\encodings\\iso8859_10.py',
   'PYMODULE'),
  ('encodings.iso8859_11',
   'c:\\python27\\lib\\encodings\\iso8859_11.py',
   'PYMODULE'),
  ('encodings.iso8859_13',
   'c:\\python27\\lib\\encodings\\iso8859_13.py',
   'PYMODULE'),
  ('encodings.iso8859_14',
   'c:\\python27\\lib\\encodings\\iso8859_14.py',
   'PYMODULE'),
  ('encodings.cp424', 'c:\\python27\\lib\\encodings\\cp424.py', 'PYMODULE'),
  ('encodings.iso8859_16',
   'c:\\python27\\lib\\encodings\\iso8859_16.py',
   'PYMODULE'),
  ('encodings.cp1006', 'c:\\python27\\lib\\encodings\\cp1006.py', 'PYMODULE'),
  ('encodings.hp_roman8',
   'c:\\python27\\lib\\encodings\\hp_roman8.py',
   'PYMODULE'),
  ('encodings.charmap',
   'c:\\python27\\lib\\encodings\\charmap.py',
   'PYMODULE'),
  ('encodings.utf_32', 'c:\\python27\\lib\\encodings\\utf_32.py', 'PYMODULE'),
  ('encodings.latin_1',
   'c:\\python27\\lib\\encodings\\latin_1.py',
   'PYMODULE'),
  ('encodings.utf_16_be',
   'c:\\python27\\lib\\encodings\\utf_16_be.py',
   'PYMODULE'),
  ('encodings.cp737', 'c:\\python27\\lib\\encodings\\cp737.py', 'PYMODULE'),
  ('encodings.utf_16', 'c:\\python27\\lib\\encodings\\utf_16.py', 'PYMODULE'),
  ('encodings.cp437', 'c:\\python27\\lib\\encodings\\cp437.py', 'PYMODULE'),
  ('encodings.mac_roman',
   'c:\\python27\\lib\\encodings\\mac_roman.py',
   'PYMODULE'),
  ('encodings.mac_centeuro',
   'c:\\python27\\lib\\encodings\\mac_centeuro.py',
   'PYMODULE'),
  ('encodings.mac_croatian',
   'c:\\python27\\lib\\encodings\\mac_croatian.py',
   'PYMODULE'),
  ('encodings.punycode',
   'c:\\python27\\lib\\encodings\\punycode.py',
   'PYMODULE'),
  ('encodings.unicode_escape',
   'c:\\python27\\lib\\encodings\\unicode_escape.py',
   'PYMODULE'),
  ('encodings.bz2_codec',
   'c:\\python27\\lib\\encodings\\bz2_codec.py',
   'PYMODULE'),
  ('encodings.rot_13', 'c:\\python27\\lib\\encodings\\rot_13.py', 'PYMODULE'),
  ('encodings.cp874', 'c:\\python27\\lib\\encodings\\cp874.py', 'PYMODULE'),
  ('encodings.cp875', 'c:\\python27\\lib\\encodings\\cp875.py', 'PYMODULE'),
  ('encodings.cp720', 'c:\\python27\\lib\\encodings\\cp720.py', 'PYMODULE'),
  ('encodings.tis_620',
   'c:\\python27\\lib\\encodings\\tis_620.py',
   'PYMODULE'),
  ('encodings.zlib_codec',
   'c:\\python27\\lib\\encodings\\zlib_codec.py',
   'PYMODULE'),
  ('encodings.iso2022_jp_2004',
   'c:\\python27\\lib\\encodings\\iso2022_jp_2004.py',
   'PYMODULE'),
  ('encodings.euc_jisx0213',
   'c:\\python27\\lib\\encodings\\euc_jisx0213.py',
   'PYMODULE'),
  ('encodings.ptcp154',
   'c:\\python27\\lib\\encodings\\ptcp154.py',
   'PYMODULE'),
  ('encodings.uu_codec',
   'c:\\python27\\lib\\encodings\\uu_codec.py',
   'PYMODULE'),
  ('encodings.utf_16_le',
   'c:\\python27\\lib\\encodings\\utf_16_le.py',
   'PYMODULE'),
  ('encodings.iso2022_jp_2',
   'c:\\python27\\lib\\encodings\\iso2022_jp_2.py',
   'PYMODULE'),
  ('encodings.iso2022_jp_3',
   'c:\\python27\\lib\\encodings\\iso2022_jp_3.py',
   'PYMODULE'),
  ('encodings.iso2022_jp_1',
   'c:\\python27\\lib\\encodings\\iso2022_jp_1.py',
   'PYMODULE'),
  ('encodings.mac_romanian',
   'c:\\python27\\lib\\encodings\\mac_romanian.py',
   'PYMODULE'),
  ('encodings.cp1026', 'c:\\python27\\lib\\encodings\\cp1026.py', 'PYMODULE'),
  ('encodings.mac_farsi',
   'c:\\python27\\lib\\encodings\\mac_farsi.py',
   'PYMODULE'),
  ('encodings.undefined',
   'c:\\python27\\lib\\encodings\\undefined.py',
   'PYMODULE'),
  ('encodings.mac_turkish',
   'c:\\python27\\lib\\encodings\\mac_turkish.py',
   'PYMODULE'),
  ('encodings.koi8_u', 'c:\\python27\\lib\\encodings\\koi8_u.py', 'PYMODULE'),
  ('encodings.koi8_r', 'c:\\python27\\lib\\encodings\\koi8_r.py', 'PYMODULE'),
  ('encodings.utf_8_sig',
   'c:\\python27\\lib\\encodings\\utf_8_sig.py',
   'PYMODULE'),
  ('encodings.iso2022_jp',
   'c:\\python27\\lib\\encodings\\iso2022_jp.py',
   'PYMODULE'),
  ('encodings.palmos', 'c:\\python27\\lib\\encodings\\palmos.py', 'PYMODULE'),
  ('encodings.mac_greek',
   'c:\\python27\\lib\\encodings\\mac_greek.py',
   'PYMODULE'),
  ('encodings.shift_jis_2004',
   'c:\\python27\\lib\\encodings\\shift_jis_2004.py',
   'PYMODULE'),
  ('encodings.gbk', 'c:\\python27\\lib\\encodings\\gbk.py', 'PYMODULE'),
  ('encodings.mac_iceland',
   'c:\\python27\\lib\\encodings\\mac_iceland.py',
   'PYMODULE'),
  ('encodings.cp858', 'c:\\python27\\lib\\encodings\\cp858.py', 'PYMODULE'),
  ('encodings.cp850', 'c:\\python27\\lib\\encodings\\cp850.py', 'PYMODULE'),
  ('encodings.cp852', 'c:\\python27\\lib\\encodings\\cp852.py', 'PYMODULE'),
  ('encodings.cp855', 'c:\\python27\\lib\\encodings\\cp855.py', 'PYMODULE'),
  ('encodings.cp856', 'c:\\python27\\lib\\encodings\\cp856.py', 'PYMODULE'),
  ('encodings.cp857', 'c:\\python27\\lib\\encodings\\cp857.py', 'PYMODULE'),
  ('encodings.iso8859_4',
   'c:\\python27\\lib\\encodings\\iso8859_4.py',
   'PYMODULE'),
  ('encodings.iso8859_5',
   'c:\\python27\\lib\\encodings\\iso8859_5.py',
   'PYMODULE'),
  ('encodings.iso8859_6',
   'c:\\python27\\lib\\encodings\\iso8859_6.py',
   'PYMODULE'),
  ('encodings.iso8859_7',
   'c:\\python27\\lib\\encodings\\iso8859_7.py',
   'PYMODULE'),
  ('encodings.iso8859_1',
   'c:\\python27\\lib\\encodings\\iso8859_1.py',
   'PYMODULE'),
  ('encodings.iso8859_2',
   'c:\\python27\\lib\\encodings\\iso8859_2.py',
   'PYMODULE'),
  ('encodings.iso8859_3',
   'c:\\python27\\lib\\encodings\\iso8859_3.py',
   'PYMODULE'),
  ('encodings.gb2312', 'c:\\python27\\lib\\encodings\\gb2312.py', 'PYMODULE'),
  ('encodings.iso8859_8',
   'c:\\python27\\lib\\encodings\\iso8859_8.py',
   'PYMODULE'),
  ('encodings.iso8859_9',
   'c:\\python27\\lib\\encodings\\iso8859_9.py',
   'PYMODULE'),
  ('encodings.cp949', 'c:\\python27\\lib\\encodings\\cp949.py', 'PYMODULE'),
  ('encodings.cp864', 'c:\\python27\\lib\\encodings\\cp864.py', 'PYMODULE'),
  ('encodings.base64_codec',
   'c:\\python27\\lib\\encodings\\base64_codec.py',
   'PYMODULE'),
  ('base64', 'c:\\python27\\lib\\base64.py', 'PYMODULE'),
  ('struct', 'c:\\python27\\lib\\struct.py', 'PYMODULE'),
  ('encodings.cp037', 'c:\\python27\\lib\\encodings\\cp037.py', 'PYMODULE'),
  ('encodings.utf_8', 'c:\\python27\\lib\\encodings\\utf_8.py', 'PYMODULE'),
  ('encodings.mac_arabic',
   'c:\\python27\\lib\\encodings\\mac_arabic.py',
   'PYMODULE'),
  ('encodings.euc_kr', 'c:\\python27\\lib\\encodings\\euc_kr.py', 'PYMODULE'),
  ('encodings.utf_7', 'c:\\python27\\lib\\encodings\\utf_7.py', 'PYMODULE'),
  ('encodings.shift_jis',
   'c:\\python27\\lib\\encodings\\shift_jis.py',
   'PYMODULE'),
  ('encodings.utf_32_le',
   'c:\\python27\\lib\\encodings\\utf_32_le.py',
   'PYMODULE'),
  ('encodings.euc_jis_2004',
   'c:\\python27\\lib\\encodings\\euc_jis_2004.py',
   'PYMODULE'),
  ('encodings.cp775', 'c:\\python27\\lib\\encodings\\cp775.py', 'PYMODULE'),
  ('encodings.cp1140', 'c:\\python27\\lib\\encodings\\cp1140.py', 'PYMODULE'),
  ('encodings.big5', 'c:\\python27\\lib\\encodings\\big5.py', 'PYMODULE'),
  ('encodings.iso8859_15',
   'c:\\python27\\lib\\encodings\\iso8859_15.py',
   'PYMODULE'),
  ('encodings.iso2022_jp_ext',
   'c:\\python27\\lib\\encodings\\iso2022_jp_ext.py',
   'PYMODULE'),
  ('encodings.johab', 'c:\\python27\\lib\\encodings\\johab.py', 'PYMODULE'),
  ('encodings.cp932', 'c:\\python27\\lib\\encodings\\cp932.py', 'PYMODULE'),
  ('codecs', 'c:\\python27\\lib\\codecs.py', 'PYMODULE'),
  ('Tix', 'c:\\python27\\lib\\lib-tk\\Tix.py', 'PYMODULE'),
  ('os', 'c:\\python27\\lib\\os.py', 'PYMODULE'),
  ('subprocess', 'c:\\python27\\lib\\subprocess.py', 'PYMODULE'),
  ('traceback', 'c:\\python27\\lib\\traceback.py', 'PYMODULE'),
  ('os2emxpath', 'c:\\python27\\lib\\os2emxpath.py', 'PYMODULE'),
  ('genericpath', 'c:\\python27\\lib\\genericpath.py', 'PYMODULE'),
  ('stat', 'c:\\python27\\lib\\stat.py', 'PYMODULE'),
  ('ntpath', 'c:\\python27\\lib\\ntpath.py', 'PYMODULE'),
  ('posixpath', 'c:\\python27\\lib\\posixpath.py', 'PYMODULE'),
  ('_strptime', 'c:\\python27\\lib\\_strptime.py', 'PYMODULE'),
  ('dummy_thread', 'c:\\python27\\lib\\dummy_thread.py', 'PYMODULE'),
  ('calendar', 'c:\\python27\\lib\\calendar.py', 'PYMODULE'),
  ('optparse', 'c:\\python27\\lib\\optparse.py', 'PYMODULE'),
  ('gettext', 'c:\\python27\\lib\\gettext.py', 'PYMODULE'),
  ('tokenize', 'c:\\python27\\lib\\tokenize.py', 'PYMODULE'),
  ('token', 'c:\\python27\\lib\\token.py', 'PYMODULE'),
  ('textwrap', 'c:\\python27\\lib\\textwrap.py', 'PYMODULE'),
  ('locale', 'c:\\python27\\lib\\locale.py', 'PYMODULE'),
  ('functools', 'c:\\python27\\lib\\functools.py', 'PYMODULE'),
  ('PIL.ImageGrab',
   'c:\\python27\\lib\\site-packages\\PIL\\ImageGrab.py',
   'PYMODULE'),
  ('io', 'c:\\python27\\lib\\io.py', 'PYMODULE'),
  ('PIL.BmpImagePlugin',
   'c:\\python27\\lib\\site-packages\\PIL\\BmpImagePlugin.py',
   'PYMODULE'),
  ('PIL.ImagePalette',
   'c:\\python27\\lib\\site-packages\\PIL\\ImagePalette.py',
   'PYMODULE'),
  ('random', 'c:\\python27\\lib\\random.py', 'PYMODULE'),
  ('hashlib', 'c:\\python27\\lib\\hashlib.py', 'PYMODULE'),
  ('logging', 'c:\\python27\\lib\\logging\\__init__.py', 'PYMODULE'),
  ('atexit', 'c:\\python27\\lib\\atexit.py', 'PYMODULE'),
  ('collections', 'c:\\python27\\lib\\collections.py', 'PYMODULE'),
  ('doctest', 'c:\\python27\\lib\\doctest.py', 'PYMODULE'),
  ('pdb', 'c:\\python27\\lib\\pdb.py', 'PYMODULE'),
  ('shlex', 'c:\\python27\\lib\\shlex.py', 'PYMODULE'),
  ('pprint', 'c:\\python27\\lib\\pprint.py', 'PYMODULE'),
  ('bdb', 'c:\\python27\\lib\\bdb.py', 'PYMODULE'),
  ('fnmatch', 'c:\\python27\\lib\\fnmatch.py', 'PYMODULE'),
  ('cmd', 'c:\\python27\\lib\\cmd.py', 'PYMODULE'),
  ('difflib', 'c:\\python27\\lib\\difflib.py', 'PYMODULE'),
  ('unittest', 'c:\\python27\\lib\\unittest\\__init__.py', 'PYMODULE'),
  ('unittest.signals', 'c:\\python27\\lib\\unittest\\signals.py', 'PYMODULE'),
  ('unittest.main', 'c:\\python27\\lib\\unittest\\main.py', 'PYMODULE'),
  ('unittest.runner', 'c:\\python27\\lib\\unittest\\runner.py', 'PYMODULE'),
  ('unittest.loader', 'c:\\python27\\lib\\unittest\\loader.py', 'PYMODULE'),
  ('unittest.suite', 'c:\\python27\\lib\\unittest\\suite.py', 'PYMODULE'),
  ('unittest.case', 'c:\\python27\\lib\\unittest\\case.py', 'PYMODULE'),
  ('unittest.result', 'c:\\python27\\lib\\unittest\\result.py', 'PYMODULE'),
  ('unittest.util', 'c:\\python27\\lib\\unittest\\util.py', 'PYMODULE'),
  ('inspect', 'c:\\python27\\lib\\inspect.py', 'PYMODULE'),
  ('dis', 'c:\\python27\\lib\\dis.py', 'PYMODULE'),
  ('opcode', 'c:\\python27\\lib\\opcode.py', 'PYMODULE'),
  ('heapq', 'c:\\python27\\lib\\heapq.py', 'PYMODULE'),
  ('keyword', 'c:\\python27\\lib\\keyword.py', 'PYMODULE'),
  ('__future__', 'c:\\python27\\lib\\__future__.py', 'PYMODULE'),
  ('PIL.PaletteFile',
   'c:\\python27\\lib\\site-packages\\PIL\\PaletteFile.py',
   'PYMODULE'),
  ('PIL.GimpGradientFile',
   'c:\\python27\\lib\\site-packages\\PIL\\GimpGradientFile.py',
   'PYMODULE'),
  ('PIL.GimpPaletteFile',
   'c:\\python27\\lib\\site-packages\\PIL\\GimpPaletteFile.py',
   'PYMODULE'),
  ('PIL.ImageColor',
   'c:\\python27\\lib\\site-packages\\PIL\\ImageColor.py',
   'PYMODULE'),
  ('colorsys', 'c:\\python27\\lib\\colorsys.py', 'PYMODULE'),
  ('PIL._binary',
   'c:\\python27\\lib\\site-packages\\PIL\\_binary.py',
   'PYMODULE'),
  ('PIL.ImageFile',
   'c:\\python27\\lib\\site-packages\\PIL\\ImageFile.py',
   'PYMODULE'),
  ('PIL._util',
   'c:\\python27\\lib\\site-packages\\PIL\\_util.py',
   'PYMODULE'),
  ('tempfile', 'c:\\python27\\lib\\tempfile.py', 'PYMODULE'),
  ('pickle', 'c:\\python27\\lib\\pickle.py', 'PYMODULE'),
  ('threading', 'c:\\python27\\lib\\threading.py', 'PYMODULE'),
  ('_threading_local', 'c:\\python27\\lib\\_threading_local.py', 'PYMODULE'),
  ('socket', 'c:\\python27\\lib\\socket.py', 'PYMODULE'),
  ('ssl', 'c:\\python27\\lib\\ssl.py', 'PYMODULE'),
  ('PIL.Image',
   'c:\\python27\\lib\\site-packages\\PIL\\Image.py',
   'PYMODULE'),
  ('PIL.SunImagePlugin',
   'c:\\python27\\lib\\site-packages\\PIL\\SunImagePlugin.py',
   'PYMODULE'),
  ('PIL.IptcImagePlugin',
   'c:\\python27\\lib\\site-packages\\PIL\\IptcImagePlugin.py',
   'PYMODULE'),
  ('PIL.McIdasImagePlugin',
   'c:\\python27\\lib\\site-packages\\PIL\\McIdasImagePlugin.py',
   'PYMODULE'),
  ('PIL.DdsImagePlugin',
   'c:\\python27\\lib\\site-packages\\PIL\\DdsImagePlugin.py',
   'PYMODULE'),
  ('PIL.MpegImagePlugin',
   'c:\\python27\\lib\\site-packages\\PIL\\MpegImagePlugin.py',
   'PYMODULE'),
  ('PIL.IcnsImagePlugin',
   'c:\\python27\\lib\\site-packages\\PIL\\IcnsImagePlugin.py',
   'PYMODULE'),
  ('shutil', 'c:\\python27\\lib\\shutil.py', 'PYMODULE'),
  ('zipfile', 'c:\\python27\\lib\\zipfile.py', 'PYMODULE'),
  ('py_compile', 'c:\\python27\\lib\\py_compile.py', 'PYMODULE'),
  ('distutils.spawn', 'c:\\python27\\lib\\distutils\\spawn.py', 'PYMODULE'),
  ('distutils.sysconfig',
   'c:\\python27\\lib\\distutils\\sysconfig.py',
   'PYMODULE'),
  ('distutils.text_file',
   'c:\\python27\\lib\\distutils\\text_file.py',
   'PYMODULE'),
  ('_osx_support', 'c:\\python27\\lib\\_osx_support.py', 'PYMODULE'),
  ('contextlib', 'c:\\python27\\lib\\contextlib.py', 'PYMODULE'),
  ('distutils.log', 'c:\\python27\\lib\\distutils\\log.py', 'PYMODULE'),
  ('distutils', 'c:\\python27\\lib\\distutils\\__init__.py', 'PYMODULE'),
  ('distutils.debug', 'c:\\python27\\lib\\distutils\\debug.py', 'PYMODULE'),
  ('distutils.errors', 'c:\\python27\\lib\\distutils\\errors.py', 'PYMODULE'),
  ('tarfile', 'c:\\python27\\lib\\tarfile.py', 'PYMODULE'),
  ('gzip', 'c:\\python27\\lib\\gzip.py', 'PYMODULE'),
  ('PIL.TiffImagePlugin',
   'c:\\python27\\lib\\site-packages\\PIL\\TiffImagePlugin.py',
   'PYMODULE'),
  ('fractions', 'c:\\python27\\lib\\fractions.py', 'PYMODULE'),
  ('decimal', 'c:\\python27\\lib\\decimal.py', 'PYMODULE'),
  ('PIL.TiffTags',
   'c:\\python27\\lib\\site-packages\\PIL\\TiffTags.py',
   'PYMODULE'),
  ('PIL.FpxImagePlugin',
   'c:\\python27\\lib\\site-packages\\PIL\\FpxImagePlugin.py',
   'PYMODULE'),
  ('olefile',
   'c:\\python27\\lib\\site-packages\\olefile\\__init__.py',
   'PYMODULE'),
  ('olefile.olefile',
   'c:\\python27\\lib\\site-packages\\olefile\\olefile.py',
   'PYMODULE'),
  ('PIL.TgaImagePlugin',
   'c:\\python27\\lib\\site-packages\\PIL\\TgaImagePlugin.py',
   'PYMODULE'),
  ('PIL.FliImagePlugin',
   'c:\\python27\\lib\\site-packages\\PIL\\FliImagePlugin.py',
   'PYMODULE'),
  ('PIL.PixarImagePlugin',
   'c:\\python27\\lib\\site-packages\\PIL\\PixarImagePlugin.py',
   'PYMODULE'),
  ('PIL.PcxImagePlugin',
   'c:\\python27\\lib\\site-packages\\PIL\\PcxImagePlugin.py',
   'PYMODULE'),
  ('PIL.XVThumbImagePlugin',
   'c:\\python27\\lib\\site-packages\\PIL\\XVThumbImagePlugin.py',
   'PYMODULE'),
  ('PIL.GbrImagePlugin',
   'c:\\python27\\lib\\site-packages\\PIL\\GbrImagePlugin.py',
   'PYMODULE'),
  ('PIL.WebPImagePlugin',
   'c:\\python27\\lib\\site-packages\\PIL\\WebPImagePlugin.py',
   'PYMODULE'),
  ('PIL.SpiderImagePlugin',
   'c:\\python27\\lib\\site-packages\\PIL\\SpiderImagePlugin.py',
   'PYMODULE'),
  ('PIL.ImageTk',
   'c:\\python27\\lib\\site-packages\\PIL\\ImageTk.py',
   'PYMODULE'),
  ('tkinter',
   'c:\\python27\\lib\\site-packages\\tkinter\\__init__.py',
   'PYMODULE'),
  ('PIL.XpmImagePlugin',
   'c:\\python27\\lib\\site-packages\\PIL\\XpmImagePlugin.py',
   'PYMODULE'),
  ('PIL.MspImagePlugin',
   'c:\\python27\\lib\\site-packages\\PIL\\MspImagePlugin.py',
   'PYMODULE'),
  ('PIL.GribStubImagePlugin',
   'c:\\python27\\lib\\site-packages\\PIL\\GribStubImagePlugin.py',
   'PYMODULE'),
  ('PIL.PcdImagePlugin',
   'c:\\python27\\lib\\site-packages\\PIL\\PcdImagePlugin.py',
   'PYMODULE'),
  ('PIL.WmfImagePlugin',
   'c:\\python27\\lib\\site-packages\\PIL\\WmfImagePlugin.py',
   'PYMODULE'),
  ('PIL.PsdImagePlugin',
   'c:\\python27\\lib\\site-packages\\PIL\\PsdImagePlugin.py',
   'PYMODULE'),
  ('PIL.FtexImagePlugin',
   'c:\\python27\\lib\\site-packages\\PIL\\FtexImagePlugin.py',
   'PYMODULE'),
  ('PIL.CurImagePlugin',
   'c:\\python27\\lib\\site-packages\\PIL\\CurImagePlugin.py',
   'PYMODULE'),
  ('PIL.BufrStubImagePlugin',
   'c:\\python27\\lib\\site-packages\\PIL\\BufrStubImagePlugin.py',
   'PYMODULE'),
  ('PIL.FitsStubImagePlugin',
   'c:\\python27\\lib\\site-packages\\PIL\\FitsStubImagePlugin.py',
   'PYMODULE'),
  ('PIL.PdfImagePlugin',
   'c:\\python27\\lib\\site-packages\\PIL\\PdfImagePlugin.py',
   'PYMODULE'),
  ('PIL.DcxImagePlugin',
   'c:\\python27\\lib\\site-packages\\PIL\\DcxImagePlugin.py',
   'PYMODULE'),
  ('PIL.IcoImagePlugin',
   'c:\\python27\\lib\\site-packages\\PIL\\IcoImagePlugin.py',
   'PYMODULE'),
  ('PIL.SgiImagePlugin',
   'c:\\python27\\lib\\site-packages\\PIL\\SgiImagePlugin.py',
   'PYMODULE'),
  ('PIL.ImImagePlugin',
   'c:\\python27\\lib\\site-packages\\PIL\\ImImagePlugin.py',
   'PYMODULE'),
  ('PIL.Hdf5StubImagePlugin',
   'c:\\python27\\lib\\site-packages\\PIL\\Hdf5StubImagePlugin.py',
   'PYMODULE'),
  ('PIL.XbmImagePlugin',
   'c:\\python27\\lib\\site-packages\\PIL\\XbmImagePlugin.py',
   'PYMODULE'),
  ('PIL.EpsImagePlugin',
   'c:\\python27\\lib\\site-packages\\PIL\\EpsImagePlugin.py',
   'PYMODULE'),
  ('PIL.MpoImagePlugin',
   'c:\\python27\\lib\\site-packages\\PIL\\MpoImagePlugin.py',
   'PYMODULE'),
  ('PIL.ImtImagePlugin',
   'c:\\python27\\lib\\site-packages\\PIL\\ImtImagePlugin.py',
   'PYMODULE'),
  ('PIL.MicImagePlugin',
   'c:\\python27\\lib\\site-packages\\PIL\\MicImagePlugin.py',
   'PYMODULE'),
  ('PIL.Jpeg2KImagePlugin',
   'c:\\python27\\lib\\site-packages\\PIL\\Jpeg2KImagePlugin.py',
   'PYMODULE'),
  ('PIL.PalmImagePlugin',
   'c:\\python27\\lib\\site-packages\\PIL\\PalmImagePlugin.py',
   'PYMODULE'),
  ('PIL.ImageShow',
   'c:\\python27\\lib\\site-packages\\PIL\\ImageShow.py',
   'PYMODULE'),
  ('pipes', 'c:\\python27\\lib\\pipes.py', 'PYMODULE'),
  ('PIL.ImageQt',
   'c:\\python27\\lib\\site-packages\\PIL\\ImageQt.py',
   'PYMODULE'),
  ('PIL.PyAccess',
   'c:\\python27\\lib\\site-packages\\PIL\\PyAccess.py',
   'PYMODULE'),
  ('PIL.PngImagePlugin',
   'c:\\python27\\lib\\site-packages\\PIL\\PngImagePlugin.py',
   'PYMODULE'),
  ('PIL.PpmImagePlugin',
   'c:\\python27\\lib\\site-packages\\PIL\\PpmImagePlugin.py',
   'PYMODULE'),
  ('PIL.JpegImagePlugin',
   'c:\\python27\\lib\\site-packages\\PIL\\JpegImagePlugin.py',
   'PYMODULE'),
  ('PIL.JpegPresets',
   'c:\\python27\\lib\\site-packages\\PIL\\JpegPresets.py',
   'PYMODULE'),
  ('PIL.GifImagePlugin',
   'c:\\python27\\lib\\site-packages\\PIL\\GifImagePlugin.py',
   'PYMODULE'),
  ('PIL.ImageSequence',
   'c:\\python27\\lib\\site-packages\\PIL\\ImageSequence.py',
   'PYMODULE'),
  ('PIL.ImageChops',
   'c:\\python27\\lib\\site-packages\\PIL\\ImageChops.py',
   'PYMODULE'),
  ('numbers', 'c:\\python27\\lib\\numbers.py', 'PYMODULE'),
  ('PIL.ImageMode',
   'c:\\python27\\lib\\site-packages\\PIL\\ImageMode.py',
   'PYMODULE'),
  ('builtins',
   'c:\\python27\\lib\\site-packages\\builtins\\__init__.py',
   'PYMODULE'),
  ('future.builtins',
   'c:\\python27\\lib\\site-packages\\future\\builtins\\__init__.py',
   'PYMODULE'),
  ('future.types.newbytes',
   'c:\\python27\\lib\\site-packages\\future\\types\\newbytes.py',
   'PYMODULE'),
  ('future.utils.surrogateescape',
   'c:\\python27\\lib\\site-packages\\future\\utils\\surrogateescape.py',
   'PYMODULE'),
  ('future.types.newstr',
   'c:\\python27\\lib\\site-packages\\future\\types\\newstr.py',
   'PYMODULE'),
  ('future.types.newobject',
   'c:\\python27\\lib\\site-packages\\future\\types\\newobject.py',
   'PYMODULE'),
  ('future.types.newrange',
   'c:\\python27\\lib\\site-packages\\future\\types\\newrange.py',
   'PYMODULE'),
  ('future.backports.misc',
   'c:\\python27\\lib\\site-packages\\future\\backports\\misc.py',
   'PYMODULE'),
  ('future.backports',
   'c:\\python27\\lib\\site-packages\\future\\backports\\__init__.py',
   'PYMODULE'),
  ('future.standard_library',
   'c:\\python27\\lib\\site-packages\\future\\standard_library\\__init__.py',
   'PYMODULE'),
  ('importlib', 'c:\\python27\\lib\\importlib\\__init__.py', 'PYMODULE'),
  ('email', 'c:\\python27\\lib\\email\\__init__.py', 'PYMODULE'),
  ('email.mime', 'c:\\python27\\lib\\email\\mime\\__init__.py', 'PYMODULE'),
  ('email.parser', 'c:\\python27\\lib\\email\\parser.py', 'PYMODULE'),
  ('email.feedparser', 'c:\\python27\\lib\\email\\feedparser.py', 'PYMODULE'),
  ('email.message', 'c:\\python27\\lib\\email\\message.py', 'PYMODULE'),
  ('email.iterators', 'c:\\python27\\lib\\email\\iterators.py', 'PYMODULE'),
  ('email.generator', 'c:\\python27\\lib\\email\\generator.py', 'PYMODULE'),
  ('email.header', 'c:\\python27\\lib\\email\\header.py', 'PYMODULE'),
  ('email.base64mime', 'c:\\python27\\lib\\email\\base64mime.py', 'PYMODULE'),
  ('email.quoprimime', 'c:\\python27\\lib\\email\\quoprimime.py', 'PYMODULE'),
  ('email.utils', 'c:\\python27\\lib\\email\\utils.py', 'PYMODULE'),
  ('email.encoders', 'c:\\python27\\lib\\email\\encoders.py', 'PYMODULE'),
  ('email._parseaddr', 'c:\\python27\\lib\\email\\_parseaddr.py', 'PYMODULE'),
  ('email.charset', 'c:\\python27\\lib\\email\\charset.py', 'PYMODULE'),
  ('uu', 'c:\\python27\\lib\\uu.py', 'PYMODULE'),
  ('email.errors', 'c:\\python27\\lib\\email\\errors.py', 'PYMODULE'),
  ('future.moves.dbm.ndbm',
   'c:\\python27\\lib\\site-packages\\future\\moves\\dbm\\ndbm.py',
   'PYMODULE'),
  ('future.moves.dbm.gnu',
   'c:\\python27\\lib\\site-packages\\future\\moves\\dbm\\gnu.py',
   'PYMODULE'),
  ('future.moves.dbm.dumb',
   'c:\\python27\\lib\\site-packages\\future\\moves\\dbm\\dumb.py',
   'PYMODULE'),
  ('dumbdbm', 'c:\\python27\\lib\\dumbdbm.py', 'PYMODULE'),
  ('future.moves.dbm',
   'c:\\python27\\lib\\site-packages\\future\\moves\\dbm\\__init__.py',
   'PYMODULE'),
  ('future.moves',
   'c:\\python27\\lib\\site-packages\\future\\moves\\__init__.py',
   'PYMODULE'),
  ('anydbm', 'c:\\python27\\lib\\anydbm.py', 'PYMODULE'),
  ('dbhash', 'c:\\python27\\lib\\dbhash.py', 'PYMODULE'),
  ('bsddb', 'c:\\python27\\lib\\bsddb\\__init__.py', 'PYMODULE'),
  ('bsddb.dbutils', 'c:\\python27\\lib\\bsddb\\dbutils.py', 'PYMODULE'),
  ('bsddb.db', 'c:\\python27\\lib\\bsddb\\db.py', 'PYMODULE'),
  ('whichdb', 'c:\\python27\\lib\\whichdb.py', 'PYMODULE'),
  ('future.moves.test.support',
   'c:\\python27\\lib\\site-packages\\future\\moves\\test\\support.py',
   'PYMODULE'),
  ('test.test_support',
   'c:\\python27\\lib\\test\\test_support.py',
   'PYMODULE'),
  ('urllib2', 'c:\\python27\\lib\\urllib2.py', 'PYMODULE'),
  ('ftplib', 'c:\\python27\\lib\\ftplib.py', 'PYMODULE'),
  ('mimetypes', 'c:\\python27\\lib\\mimetypes.py', 'PYMODULE'),
  ('cookielib', 'c:\\python27\\lib\\cookielib.py', 'PYMODULE'),
  ('_MozillaCookieJar',
   'c:\\python27\\lib\\_MozillaCookieJar.py',
   'PYMODULE'),
  ('_LWPCookieJar', 'c:\\python27\\lib\\_LWPCookieJar.py', 'PYMODULE'),
  ('dummy_threading', 'c:\\python27\\lib\\dummy_threading.py', 'PYMODULE'),
  ('bisect', 'c:\\python27\\lib\\bisect.py', 'PYMODULE'),
  ('mimetools', 'c:\\python27\\lib\\mimetools.py', 'PYMODULE'),
  ('rfc822', 'c:\\python27\\lib\\rfc822.py', 'PYMODULE'),
  ('httplib', 'c:\\python27\\lib\\httplib.py', 'PYMODULE'),
  ('urlparse', 'c:\\python27\\lib\\urlparse.py', 'PYMODULE'),
  ('ctypes.util', 'c:\\python27\\lib\\ctypes\\util.py', 'PYMODULE'),
  ('ctypes.macholib.dyld',
   'c:\\python27\\lib\\ctypes\\macholib\\dyld.py',
   'PYMODULE'),
  ('ctypes.macholib',
   'c:\\python27\\lib\\ctypes\\macholib\\__init__.py',
   'PYMODULE'),
  ('ctypes.macholib.dylib',
   'c:\\python27\\lib\\ctypes\\macholib\\dylib.py',
   'PYMODULE'),
  ('ctypes.macholib.framework',
   'c:\\python27\\lib\\ctypes\\macholib\\framework.py',
   'PYMODULE'),
  ('ctypes.wintypes', 'c:\\python27\\lib\\ctypes\\wintypes.py', 'PYMODULE'),
  ('ctypes', 'c:\\python27\\lib\\ctypes\\__init__.py', 'PYMODULE'),
  ('ctypes._endian', 'c:\\python27\\lib\\ctypes\\_endian.py', 'PYMODULE'),
  ('sysconfig', 'c:\\python27\\lib\\sysconfig.py', 'PYMODULE'),
  ('platform', 'c:\\python27\\lib\\platform.py', 'PYMODULE'),
  ('plistlib', 'c:\\python27\\lib\\plistlib.py', 'PYMODULE'),
  ('xml.parsers.expat',
   'c:\\python27\\lib\\xml\\parsers\\expat.py',
   'PYMODULE'),
  ('xml.parsers', 'c:\\python27\\lib\\xml\\parsers\\__init__.py', 'PYMODULE'),
  ('xml', 'c:\\python27\\lib\\xml\\__init__.py', 'PYMODULE'),
  ('xml.sax.expatreader',
   'c:\\python27\\lib\\xml\\sax\\expatreader.py',
   'PYMODULE'),
  ('xml.sax.saxutils',
   'c:\\python27\\lib\\xml\\sax\\saxutils.py',
   'PYMODULE'),
  ('xml.sax', 'c:\\python27\\lib\\xml\\sax\\__init__.py', 'PYMODULE'),
  ('xml.sax.handler', 'c:\\python27\\lib\\xml\\sax\\handler.py', 'PYMODULE'),
  ('xml.sax._exceptions',
   'c:\\python27\\lib\\xml\\sax\\_exceptions.py',
   'PYMODULE'),
  ('xml.sax.xmlreader',
   'c:\\python27\\lib\\xml\\sax\\xmlreader.py',
   'PYMODULE'),
  ('win32con',
   'c:\\python27\\lib\\site-packages\\win32\\lib\\win32con.py',
   'PYMODULE'),
  ('future.moves.test',
   'c:\\python27\\lib\\site-packages\\future\\moves\\test\\__init__.py',
   'PYMODULE'),
  ('test', 'c:\\python27\\lib\\test\\__init__.py', 'PYMODULE'),
  ('future.backports.urllib.robotparser',
   'c:\\python27\\lib\\site-packages\\future\\backports\\urllib\\robotparser.py',
   'PYMODULE'),
  ('future.backports.urllib.error',
   'c:\\python27\\lib\\site-packages\\future\\backports\\urllib\\error.py',
   'PYMODULE'),
  ('future.backports.urllib.parse',
   'c:\\python27\\lib\\site-packages\\future\\backports\\urllib\\parse.py',
   'PYMODULE'),
  ('future.backports.urllib.response',
   'c:\\python27\\lib\\site-packages\\future\\backports\\urllib\\response.py',
   'PYMODULE'),
  ('future.backports.urllib.request',
   'c:\\python27\\lib\\site-packages\\future\\backports\\urllib\\request.py',
   'PYMODULE'),
  ('winreg',
   'c:\\python27\\lib\\site-packages\\winreg\\__init__.py',
   'PYMODULE'),
  ('getpass', 'c:\\python27\\lib\\getpass.py', 'PYMODULE'),
  ('nturl2path', 'c:\\python27\\lib\\nturl2path.py', 'PYMODULE'),
  ('future.backports.email.utils',
   'c:\\python27\\lib\\site-packages\\future\\backports\\email\\utils.py',
   'PYMODULE'),
  ('future.backports.email.charset',
   'c:\\python27\\lib\\site-packages\\future\\backports\\email\\charset.py',
   'PYMODULE'),
  ('future.backports.email.errors',
   'c:\\python27\\lib\\site-packages\\future\\backports\\email\\errors.py',
   'PYMODULE'),
  ('future.backports.email.encoders',
   'c:\\python27\\lib\\site-packages\\future\\backports\\email\\encoders.py',
   'PYMODULE'),
  ('future.backports.email._parseaddr',
   'c:\\python27\\lib\\site-packages\\future\\backports\\email\\_parseaddr.py',
   'PYMODULE'),
  ('future.backports.http.cookiejar',
   'c:\\python27\\lib\\site-packages\\future\\backports\\http\\cookiejar.py',
   'PYMODULE'),
  ('future.backports.http.client',
   'c:\\python27\\lib\\site-packages\\future\\backports\\http\\client.py',
   'PYMODULE'),
  ('future.backports.email.message',
   'c:\\python27\\lib\\site-packages\\future\\backports\\email\\message.py',
   'PYMODULE'),
  ('future.backports.email.iterators',
   'c:\\python27\\lib\\site-packages\\future\\backports\\email\\iterators.py',
   'PYMODULE'),
  ('future.backports.email.generator',
   'c:\\python27\\lib\\site-packages\\future\\backports\\email\\generator.py',
   'PYMODULE'),
  ('future.backports.email.header',
   'c:\\python27\\lib\\site-packages\\future\\backports\\email\\header.py',
   'PYMODULE'),
  ('future.backports.email.quoprimime',
   'c:\\python27\\lib\\site-packages\\future\\backports\\email\\quoprimime.py',
   'PYMODULE'),
  ('future.backports.email.base64mime',
   'c:\\python27\\lib\\site-packages\\future\\backports\\email\\base64mime.py',
   'PYMODULE'),
  ('future.backports.email._encoded_words',
   'c:\\python27\\lib\\site-packages\\future\\backports\\email\\_encoded_words.py',
   'PYMODULE'),
  ('future.backports.email._policybase',
   'c:\\python27\\lib\\site-packages\\future\\backports\\email\\_policybase.py',
   'PYMODULE'),
  ('future.backports.email.parser',
   'c:\\python27\\lib\\site-packages\\future\\backports\\email\\parser.py',
   'PYMODULE'),
  ('future.backports.email.feedparser',
   'c:\\python27\\lib\\site-packages\\future\\backports\\email\\feedparser.py',
   'PYMODULE'),
  ('future.backports.http',
   'c:\\python27\\lib\\site-packages\\future\\backports\\http\\__init__.py',
   'PYMODULE'),
  ('future.backports.urllib',
   'c:\\python27\\lib\\site-packages\\future\\backports\\urllib\\__init__.py',
   'PYMODULE'),
  ('urllib', 'c:\\python27\\lib\\urllib.py', 'PYMODULE'),
  ('future.backports.email',
   'c:\\python27\\lib\\site-packages\\future\\backports\\email\\__init__.py',
   'PYMODULE'),
  ('future.backports.datetime',
   'c:\\python27\\lib\\site-packages\\future\\backports\\datetime.py',
   'PYMODULE'),
  ('reprlib',
   'c:\\python27\\lib\\site-packages\\reprlib\\__init__.py',
   'PYMODULE'),
  ('_dummy_thread',
   'c:\\python27\\lib\\site-packages\\_dummy_thread\\__init__.py',
   'PYMODULE'),
  ('_thread',
   'c:\\python27\\lib\\site-packages\\_thread\\__init__.py',
   'PYMODULE'),
  ('future.types.newlist',
   'c:\\python27\\lib\\site-packages\\future\\types\\newlist.py',
   'PYMODULE'),
  ('future.types.newint',
   'c:\\python27\\lib\\site-packages\\future\\types\\newint.py',
   'PYMODULE'),
  ('future.types.newdict',
   'c:\\python27\\lib\\site-packages\\future\\types\\newdict.py',
   'PYMODULE'),
  ('future.types',
   'c:\\python27\\lib\\site-packages\\future\\types\\__init__.py',
   'PYMODULE'),
  ('future.utils',
   'c:\\python27\\lib\\site-packages\\future\\utils\\__init__.py',
   'PYMODULE'),
  ('future.builtins.misc',
   'c:\\python27\\lib\\site-packages\\future\\builtins\\misc.py',
   'PYMODULE'),
  ('future.builtins.newsuper',
   'c:\\python27\\lib\\site-packages\\future\\builtins\\newsuper.py',
   'PYMODULE'),
  ('future.builtins.newround',
   'c:\\python27\\lib\\site-packages\\future\\builtins\\newround.py',
   'PYMODULE'),
  ('future.builtins.newnext',
   'c:\\python27\\lib\\site-packages\\future\\builtins\\newnext.py',
   'PYMODULE'),
  ('future.builtins.iterators',
   'c:\\python27\\lib\\site-packages\\future\\builtins\\iterators.py',
   'PYMODULE'),
  ('future',
   'c:\\python27\\lib\\site-packages\\future\\__init__.py',
   'PYMODULE'),
  ('PIL', 'c:\\python27\\lib\\site-packages\\PIL\\__init__.py', 'PYMODULE'),
  ('ttk', 'c:\\python27\\lib\\lib-tk\\ttk.py', 'PYMODULE'),
  ('Tkinter', 'c:\\python27\\lib\\lib-tk\\Tkinter.py', 'PYMODULE'),
  ('Tkconstants', 'c:\\python27\\lib\\lib-tk\\Tkconstants.py', 'PYMODULE'),
  ('FixTk', 'c:\\python27\\lib\\lib-tk\\FixTk.py', 'PYMODULE')])
